Computational Movement Analysis - Week 4
…
sabi <- sabi |>
    rowwise() |>
    mutate(
        stepMean = mean(c(nMinus2, nMinus1, nPlus1, nPlus2))
    ) |>
    ungroup()

sabi

Simple feature collection with 192 features and 11 fields
Geometry type: POINT
Dimension:     XY
Bounding box:  xmin: 2569724 ymin: 1204916 xmax: 2570927 ymax: 1205957
Projected CRS: CH1903+ / LV95
# A tibble: 192 × 12
   TierID TierName CollarID DatetimeUTC                E        N
   <chr>  <chr>       <dbl> <dttm>                 <dbl>    <dbl>
 1 002A   Sabi        12275 2015-06-30 22:00:13 2569972. 1205366.
 2 002A   Sabi        12275 2015-06-30 22:16:06 2569975. 1205637.
 3 002A   Sabi        12275 2015-06-30 22:30:19 2570266. 1205857.
 4 002A   Sabi        12275 2015-06-30 22:45:13 2570208. 1205913.
 5 002A   Sabi        12275 2015-06-30 23:00:10 2570247. 1205731.
 6 002A   Sabi        12275 2015-06-30 23:15:17 2570512. 1205279.
 7 002A   Sabi        12275 2015-06-30 23:30:38 2570684. 1205103.
 8 002A   Sabi        12275 2015-06-30 23:45:16 2570526. 1205051.
 9 002A   Sabi        12275 2015-07-01 00:00:10 2570532. 1205044.
10 002A   Sabi        12275 2015-07-01 00:15:14 2570530. 1205059.
# ℹ 182 more rows
# ℹ 6 more variables: geometry <POINT [m]>, nMinus2 <dbl>, nMinus1 <dbl>,
#   nPlus1 <dbl>, nPlus2 <dbl>, stepMean <dbl>
…
activity <- readFitFile("kurz_auf_den_harder.fit")

activity

Fit File
├╴File created: 2023-04-26 18:11:39
├╴Device: strava 102
└╴Number of data messages: 7730

activity_records <- records(activity)
activity_records

$record_1
# A tibble: 3,832 × 6
   position_lat position_long enhanced_altitude speed gps_accuracy
          <dbl>         <dbl>             <dbl> <dbl>        <int>
 1         46.7          7.85              624. 0.377          122
 2         46.7          7.85              621  2.81           118
 3         46.7          7.85              621  1.03            93
 4         46.7          7.85              621  0.962           97
 5         46.7          7.85              621  0.564           92
 6         46.7          7.85              621  0.207           90
 7         46.7          7.85              616. 0.25            88
 8         46.7          7.85              616. 0.424           85
 9         46.7          7.85              616. 0.55            77
10         46.7          7.85              621  0.637           73
# ℹ 3,822 more rows
# ℹ 1 more variable: timestamp <dttm>

$record_2
# A tibble: 3,832 × 2
   timestamp           distance
   <dttm>                 <dbl>
 1 2023-04-26 16:54:59      0  
 2 2023-04-26 16:55:04     20.1
 3 2023-04-26 16:55:09     38.7
 4 2023-04-26 16:55:13     43.0
 5 2023-04-26 16:55:19     46.0
 6 2023-04-26 16:55:23     49.0
 7 2023-04-26 16:55:29     56.1
 8 2023-04-26 16:55:29     56.1
 9 2023-04-26 16:55:31     63.6
10 2023-04-26 16:55:34     63.6
# ℹ 3,822 more rows
…
activity_sf <- activity_sf |>
    rowwise() |>
    mutate(
        stepMean = mean(c(nMinus5, nMinus4, nMinus3, nMinus2, nMinus1, nPlus1, nPlus2, nPlus3, nPlus4, nPlus5))
    ) |>
    ungroup()

activity_sf

Simple feature collection with 3771 features and 17 fields
Geometry type: POINT
Dimension:     XY
Bounding box:  xmin: 2631667 ymin: 1170565 xmax: 2632935 ymax: 1171893
Projected CRS: CH1903+ / LV95
# A tibble: 3,771 × 18
   enhanced_altitude speed gps_accuracy timestamp                  X        Y
               <dbl> <dbl>        <int> <dttm>                 <dbl>    <dbl>
 1              616. 0.377           30 2023-04-26 16:56:04 2631729. 1170692.
 2              616. 0.157           27 2023-04-26 16:56:05 2631728. 1170692.
 3              616. 0.036           24 2023-04-26 16:56:07 2631728. 1170695.
 4              616. 0.004           20 2023-04-26 16:56:07 2631729. 1170697.
 5              616. 0.021           16 2023-04-26 16:56:09 2631730. 1170700.
 6              616. 0.03            11 2023-04-26 16:56:10 2631731. 1170701.
 7              616. 0.018            9 2023-04-26 16:56:12 2631731. 1170702.
 8              616. 0.003            8 2023-04-26 16:56:13 2631731. 1170703.
 9              616. 0                7 2023-04-26 16:56:14 2631731. 1170703.
10              616. 0.052            7 2023-04-26 16:56:15 2631730. 1170701.
# ℹ 3,761 more rows
# ℹ 12 more variables: geometry <POINT [m]>, nMinus5 <dbl>, nMinus4 <dbl>,
#   nMinus3 <dbl>, nMinus2 <dbl>, nMinus1 <dbl>, nPlus1 <dbl>, nPlus2 <dbl>,
#   nPlus3 <dbl>, nPlus4 <dbl>, nPlus5 <dbl>, stepMean <dbl>
…
